…
Getting Started

First, download the dplyr package and tidyverse package. The dplyr package will give you access to all of the functions mentioned above. The tidyverse package will assist in transforming each dataframe into a tibble. This will be done for convenience purposes since printing a tibble only shows the first ten rows, rather than the entire dataset. For more information regarding tibbles, look here.

library(dplyr)
library(tidyverse)

Next, download three datasets that will be used in various examples. The first dataset is called Credit.

library(ISLR)
Credit <- as_tibble(ISLR::Credit)
Credit

## # A tibble: 400 x 12
##       ID Income Limit Rating Cards   Age Education Gender  Student Married
##    <int>  <dbl> <int>  <int> <int> <int>     <int> <fct>   <fct>   <fct>  
##  1     1   14.9  3606    283     2    34        11 " Male" No      Yes    
##  2     2  106.   6645    483     3    82        15 Female  Yes     Yes    
##  3     3  105.   7075    514     4    71        11 " Male" No      No     
##  4     4  149.   9504    681     3    36        11 Female  No      No     
##  5     5   55.9  4897    357     2    68        16 " Male" No      Yes    
##  6     6   80.2  8047    569     4    77        10 " Male" No      No     
##  7     7   21.0  3388    259     2    37        12 Female  No      No     
##  8     8   71.4  7114    512     2    87         9 " Male" No      No     
##  9     9   15.1  3300    266     5    66        13 Female  No      No     
## 10    10   71.1  6819    491     3    41        19 Female  Yes     Yes    
## # ... with 390 more rows, and 2 more variables: Ethnicity <fct>,
## #   Balance <int>

The second dataset is called Flights.

library(nycflights13)
flights <- as_tibble(nycflights13::flights)
flights

## # A tibble: 336,776 x 19
##     year month   day dep_time sched_dep_time dep_delay arr_time
##    <int> <int> <int>    <int>          <int>     <dbl>    <int>
##  1  2013     1     1      517            515         2      830
##  2  2013     1     1      533            529         4      850
##  3  2013     1     1      542            540         2      923
##  4  2013     1     1      544            545        -1     1004
##  5  2013     1     1      554            600        -6      812
##  6  2013     1     1      554            558        -4      740
##  7  2013     1     1      555            600        -5      913
##  8  2013     1     1      557            600        -3      709
##  9  2013     1     1      557            600        -3      838
## 10  2013     1     1      558            600        -2      753
## # ... with 336,766 more rows, and 12 more variables: sched_arr_time <int>,
## #   arr_delay <dbl>, carrier <chr>, flight <int>, tailnum <chr>,
## #   origin <chr>, dest <chr>, air_time <dbl>, distance <dbl>, hour <dbl>,
## #   minute <dbl>, time_hour <dttm>

The third dataset is called Air Quality.

library(datasets)
airquality <- as_tibble(datasets::airquality)
airquality

## # A tibble: 153 x 6
##    Ozone Solar.R  Wind  Temp Month   Day
##    <int>   <int> <dbl> <int> <int> <int>
##  1    41     190   7.4    67     5     1
##  2    36     118   8      72     5     2
##  3    12     149  12.6    74     5     3
##  4    18     313  11.5    62     5     4
##  5    NA      NA  14.3    56     5     5
##  6    28      NA  14.9    66     5     6
##  7    23     299   8.6    65     5     7
##  8    19      99  13.8    59     5     8
##  9     8      19  20.1    61     5     9
## 10    NA     194   8.6    69     5    10
## # ... with 143 more rows
Examples

In the following examples I will demonstrate how to use each of the dplyr functions, and I will also show how to do that same task using Base R. Each example will be formatted so (a) performs the task using dplyr (b) performs the task using Base R.

I) Select Function {#Select Function}

Example 1

The purpose of Example 1 is to select specific variables of the airquality dataset, and display the subset of data in the exact order shown within the function (e.g- “Month, Day, Ozone, Temp”). Using DPLYR (a) this is done using the select function, and using Base R (b) this is done by subsetting the airquality dataset using the which function.

Example 1(a): DPLYR

select(airquality, Month, Day, Ozone, Temp)

## # A tibble: 153 x 4
##    Month   Day Ozone  Temp
##    <int> <int> <int> <int>
##  1     5     1    41    67
##  2     5     2    36    72
##  3     5     3    12    74
##  4     5     4    18    62
##  5     5     5    NA    56
##  6     5     6    28    66
##  7     5     7    23    65
##  8     5     8    19    59
##  9     5     9     8    61
## 10     5    10    NA    69
## # ... with 143 more rows

Example 1(b): Base R

airquality[,c(which(colnames(airquality)=="Month"), which(colnames(airquality)=="Day"), 
              which(colnames(airquality)=="Ozone"), which(colnames(airquality)=="Temp"))]

## # A tibble: 153 x 4
##    Month   Day Ozone  Temp
##    <int> <int> <int> <int>
##  1     5     1    41    67
##  2     5     2    36    72
##  3     5     3    12    74
##  4     5     4    18    62
##  5     5     5    NA    56
##  6     5     6    28    66
##  7     5     7    23    65
##  8     5     8    19    59
##  9     5     9     8    61
## 10     5    10    NA    69
## # ... with 143 more rows

Example 2

The purpose of Example 2 is to display the subset of data in the exact order shown within the function (e.g- “Temp, Month, Day”). Using DPLYR (a) this is done using the select function and ‘:’ notation, which means show all variables between the variable on the left of the colon and the variable on the right of colon. Using Base R (b), this is done by subsetting the airquality dataset using the which function.

Example 2(a): DPLYR

select(airquality, Temp:Day)

## # A tibble: 153 x 3
##     Temp Month   Day
##    <int> <int> <int>
##  1    67     5     1
##  2    72     5     2
##  3    74     5     3
##  4    62     5     4
##  5    56     5     5
##  6    66     5     6
##  7    65     5     7
##  8    59     5     8
##  9    61     5     9
## 10    69     5    10
## # ... with 143 more rows

Example 2(b): Base R

airquality[,c(which(colnames(airquality)=="Temp"), which(colnames(airquality)=="Month"), which(colnames(airquality)=="Day"))]

## # A tibble: 153 x 3
##     Temp Month   Day
##    <int> <int> <int>
##  1    67     5     1
##  2    72     5     2
##  3    74     5     3
##  4    62     5     4
##  5    56     5     5
##  6    66     5     6
##  7    65     5     7
##  8    59     5     8
##  9    61     5     9
## 10    69     5    10
## # ... with 143 more rows

Example 3

Example 3 is similar to Example 2 in that its purpose is to display a subset of varibales. However, the ‘-’ sign in Example 3, removes all of the variables listed, and displays only the remaining variables in the dataset.

Example 3(a): DPLYR

select(airquality, -(Temp:Day))

## # A tibble: 153 x 3
##    Ozone Solar.R  Wind
##    <int>   <int> <dbl>
##  1    41     190   7.4
##  2    36     118   8  
##  3    12     149  12.6
##  4    18     313  11.5
##  5    NA      NA  14.3
##  6    28      NA  14.9
##  7    23     299   8.6
##  8    19      99  13.8
##  9     8      19  20.1
## 10    NA     194   8.6
## # ... with 143 more rows

Example 3(b): Base R

airquality[,-c(which(colnames(airquality)=="Temp"), which(colnames(airquality)=="Month"), which(colnames(airquality)=="Day"))]

## # A tibble: 153 x 3
##    Ozone Solar.R  Wind
##    <int>   <int> <dbl>
##  1    41     190   7.4
##  2    36     118   8  
##  3    12     149  12.6
##  4    18     313  11.5
##  5    NA      NA  14.3
##  6    28      NA  14.9
##  7    23     299   8.6
##  8    19      99  13.8
##  9     8      19  20.1
## 10    NA     194   8.6
## # ... with 143 more rows

II) Select Helper Functions 

Example 1

The purpose of Example 1 is to identify all variables (column names) in the dataset that start with a letter “E”. Using DPLYR (a) this is done simulataneously using both the select and starts_with functions. Using Base R (b) this is done by subsetting the dataset and using the startsWith function. For (a) capitalization is not important; however, for (b) capitalization is important– variables need to be exactly the same as the way they exist within the dataset in order for them to be recognized by the function.

Example 1(a): DPLYR

dplyr::select(Credit, starts_with("E"))

## # A tibble: 400 x 2
##    Education Ethnicity       
##        <int> <fct>           
##  1        11 Caucasian       
##  2        15 Asian           
##  3        11 Asian           
##  4        11 Asian           
##  5        16 Caucasian       
##  6        10 Caucasian       
##  7        12 African American
##  8         9 Asian           
##  9        13 Caucasian       
## 10        19 African American
## # ... with 390 more rows

Example 1(b): Base R

Credit[,startsWith(colnames(ISLR::Credit), "E")]

## # A tibble: 400 x 2
##    Education Ethnicity       
##        <int> <fct>           
##  1        11 Caucasian       
##  2        15 Asian           
##  3        11 Asian           
##  4        11 Asian           
##  5        16 Caucasian       
##  6        10 Caucasian       
##  7        12 African American
##  8         9 Asian           
##  9        13 Caucasian       
## 10        19 African American
## # ... with 390 more rows

Example 2

The purpose of Example 2 is to identify and select all variables in the dataset that end with a letter “E”. Using DPLYR (a) this is done simulataneously using both the select and ends_with functions. Using Base R (b) this is done by subsetting the dataset and using the endsWith function. For (a) capitalization is not important; however, for (b) capitalization is important– variables need to be exactly the same as the way they exist within the dataset in order for them to be recognized by the function.

Example 2(a): DPLYR

dplyr::select(Credit, ends_with("E"))

## # A tibble: 400 x 3
##    Income   Age Balance
##     <dbl> <int>   <int>
##  1   14.9    34     333
##  2  106.     82     903
##  3  105.     71     580
##  4  149.     36     964
##  5   55.9    68     331
##  6   80.2    77    1151
##  7   21.0    37     203
##  8   71.4    87     872
##  9   15.1    66     279
## 10   71.1    41    1350
## # ... with 390 more rows

Example 2(b): Base R

Credit[,endsWith(colnames(ISLR::Credit), "e")]

## # A tibble: 400 x 3
##    Income   Age Balance
##     <dbl> <int>   <int>
##  1   14.9    34     333
##  2  106.     82     903
##  3  105.     71     580
##  4  149.     36     964
##  5   55.9    68     331
##  6   80.2    77    1151
##  7   21.0    37     203
##  8   71.4    87     872
##  9   15.1    66     279
## 10   71.1    41    1350
## # ... with 390 more rows

Example 3

The purpose of Example 3 is to select all variables in the data that contain the sequence of letters ‘arr’. Using DPLYR (a) this is done simulataneously using both the select and matches functions. Using Base R (b) this is done by subsetting the dataset and using the grepl function.

Example 3(a): DPLYR

dplyr::select(flights, matches("arr")) 

## # A tibble: 336,776 x 4
##    arr_time sched_arr_time arr_delay carrier
##       <int>          <int>     <dbl> <chr>  
##  1      830            819        11 UA     
##  2      850            830        20 UA     
##  3      923            850        33 AA     
##  4     1004           1022       -18 B6     
##  5      812            837       -25 DL     
##  6      740            728        12 UA     
##  7      913            854        19 B6     
##  8      709            723       -14 EV     
##  9      838            846        -8 B6     
## 10      753            745         8 AA     
## # ... with 336,766 more rows

Example 3(b): Base R

flights[,grepl("arr", colnames(flights))]

## # A tibble: 336,776 x 4
##    arr_time sched_arr_time arr_delay carrier
##       <int>          <int>     <dbl> <chr>  
##  1      830            819        11 UA     
##  2      850            830        20 UA     
##  3      923            850        33 AA     
##  4     1004           1022       -18 B6     
##  5      812            837       -25 DL     
##  6      740            728        12 UA     
##  7      913            854        19 B6     
##  8      709            723       -14 EV     
##  9      838            846        -8 B6     
## 10      753            745         8 AA     
## # ... with 336,766 more rows

Example 4

The purpose of Example 4 is to select all variables in the data that contain the sequence of letters ‘time’. Using DPLYR (a) this is done simulataneously using both the select and contains functions. Using Base R (b) this is done by subsetting the dataset and using the grepl function.

Example 4(a): DPLYR

dplyr::select(flights, contains("time")) 

## # A tibble: 336,776 x 6
##    dep_time sched_dep_time arr_time sched_arr_time air_time
##       <int>          <int>    <int>          <int>    <dbl>
##  1      517            515      830            819      227
##  2      533            529      850            830      227
##  3      542            540      923            850      160
##  4      544            545     1004           1022      183
##  5      554            600      812            837      116
##  6      554            558      740            728      150
##  7      555            600      913            854      158
##  8      557            600      709            723       53
##  9      557            600      838            846      140
## 10      558            600      753            745      138
## # ... with 336,766 more rows, and 1 more variable: time_hour <dttm>

Example 4(b): Base R

flights[,grepl("time", colnames(flights))]

## # A tibble: 336,776 x 6
##    dep_time sched_dep_time arr_time sched_arr_time air_time
##       <int>          <int>    <int>          <int>    <dbl>
##  1      517            515      830            819      227
##  2      533            529      850            830      227
##  3      542            540      923            850      160
##  4      544            545     1004           1022      183
##  5      554            600      812            837      116
##  6      554            558      740            728      150
##  7      555            600      913            854      158
##  8      557            600      709            723       53
##  9      557            600      838            846      140
## 10      558            600      753            745      138
## # ... with 336,766 more rows, and 1 more variable: time_hour <dttm>

Example 5

In this example, suppose that the column names of a dataset have a similar formatting but differ based on a numerical range, e.g- x01, x02, x03, x04, etc. The purpose of Example 5 is to select only variables that have column names between the numerical range of 8-11. Using DPLYR (a) this is done simulataneously using both the select and num_range functions. Using Base R (b) this is done by subsetting the dataset and using the which function.

Example 5(a): DPLYR

flight_data <- flights 
colnames(flight_data) <- sprintf("x%d", 1:19) 
dplyr::select(flight_data, num_range("x", 8:11))

## # A tibble: 336,776 x 4
##       x8    x9 x10     x11
##    <int> <dbl> <chr> <int>
##  1   819    11 UA     1545
##  2   830    20 UA     1714
##  3   850    33 AA     1141
##  4  1022   -18 B6      725
##  5   837   -25 DL      461
##  6   728    12 UA     1696
##  7   854    19 B6      507
##  8   723   -14 EV     5708
##  9   846    -8 B6       79
## 10   745     8 AA      301
## # ... with 336,766 more rows

Example 5(b): Base R

flight_data <- flights 
colnames(flight_data) <- sprintf("x%d", 1:19) 
flight_data[,c(which(colnames(flight_data)=="x8"), which(colnames(flight_data)=="x9"), 
               which(colnames(flight_data)=="x10"), which(colnames(flight_data)=="x11"))]

## # A tibble: 336,776 x 4
##       x8    x9 x10     x11
##    <int> <dbl> <chr> <int>
##  1   819    11 UA     1545
##  2   830    20 UA     1714
##  3   850    33 AA     1141
##  4  1022   -18 B6      725
##  5   837   -25 DL      461
##  6   728    12 UA     1696
##  7   854    19 B6      507
##  8   723   -14 EV     5708
##  9   846    -8 B6       79
## 10   745     8 AA      301
## # ... with 336,766 more rows

III) Filter Function 

Example 1

The purpose of Example 1 is to extract data pertaining to all rows (airquality days) in the month of September. Using DPLYR (a) this is done using the filter function. Using Base R (b) this is done by simultaneously subsetting and specifying the condition of interest.

Example 1(a): DPLYR

dplyr::filter(airquality, Month == 9)

## # A tibble: 30 x 6
##    Ozone Solar.R  Wind  Temp Month   Day
##    <int>   <int> <dbl> <int> <int> <int>
##  1    96     167   6.9    91     9     1
##  2    78     197   5.1    92     9     2
##  3    73     183   2.8    93     9     3
##  4    91     189   4.6    93     9     4
##  5    47      95   7.4    87     9     5
##  6    32      92  15.5    84     9     6
##  7    20     252  10.9    80     9     7
##  8    23     220  10.3    78     9     8
##  9    21     230  10.9    75     9     9
## 10    24     259   9.7    73     9    10
## # ... with 20 more rows

Example 1(b): Base R

airquality[airquality$Month == 9, ]

## # A tibble: 30 x 6
##    Ozone Solar.R  Wind  Temp Month   Day
##    <int>   <int> <dbl> <int> <int> <int>
##  1    96     167   6.9    91     9     1
##  2    78     197   5.1    92     9     2
##  3    73     183   2.8    93     9     3
##  4    91     189   4.6    93     9     4
##  5    47      95   7.4    87     9     5
##  6    32      92  15.5    84     9     6
##  7    20     252  10.9    80     9     7
##  8    23     220  10.3    78     9     8
##  9    21     230  10.9    75     9     9
## 10    24     259   9.7    73     9    10
## # ... with 20 more rows

Example 2

The purpose of Example 2 is to extract data pertaining to all rows, also known as airquality days, in the month of September. Using DPLYR (a) this is done using the filter function. Using Base R (b) this is done by simultaneously subsetting and specifying the condition of interest.

Example 2(a): DPLYR

dplyr::filter(airquality, Month == 9, Solar.R > 100)

## # A tibble: 23 x 6
##    Ozone Solar.R  Wind  Temp Month   Day
##    <int>   <int> <dbl> <int> <int> <int>
##  1    96     167   6.9    91     9     1
##  2    78     197   5.1    92     9     2
##  3    73     183   2.8    93     9     3
##  4    91     189   4.6    93     9     4
##  5    20     252  10.9    80     9     7
##  6    23     220  10.3    78     9     8
##  7    21     230  10.9    75     9     9
##  8    24     259   9.7    73     9    10
##  9    44     236  14.9    81     9    11
## 10    21     259  15.5    76     9    12
## # ... with 13 more rows

Example 2(b): Base R

airquality[airquality$Month == 9 & airquality$Solar.R > 100, ]

## # A tibble: 23 x 6
##    Ozone Solar.R  Wind  Temp Month   Day
##    <int>   <int> <dbl> <int> <int> <int>
##  1    96     167   6.9    91     9     1
##  2    78     197   5.1    92     9     2
##  3    73     183   2.8    93     9     3
##  4    91     189   4.6    93     9     4
##  5    20     252  10.9    80     9     7
##  6    23     220  10.3    78     9     8
##  7    21     230  10.9    75     9     9
##  8    24     259   9.7    73     9    10
##  9    44     236  14.9    81     9    11
## 10    21     259  15.5    76     9    12
## # ... with 13 more rows
…
